{
  "Gemfile": "4b813de2d669780ceabc44c103ba80de",
  "Gemfile.lock": "5a3e6d87be9b393e2d88f1fbc209b506",
  "README.md": "d942a8d9321a193316f3ccc296afbf6a",
  "Rakefile": "cce445856d8e86f0050dd878428e64ff",
  "manifests/config.pp": "037b61f196daa2f3850165c6ea2fe4fe",
  "manifests/init.pp": "aeec86b1206636a12787de2c3fc85188",
  "manifests/install.pp": "f9511a563e48ab8e36d35c7d6b9d9693",
  "manifests/params.pp": "ff2f702feee5383dfcbf5f59283d78fd",
  "manifests/service.pp": "847fad48f8f1ff96d3eec1ece7eea781",
  "metadata.json": "be796572518998ed3dcb0e12c52cd3a3",
  "spec/classes/sssd_spec.rb": "446133a3503f2ace5079f66e98fa0d57",
  "spec/spec_helper.rb": "0db89c9a486df193c0e40095422e19dc",
  "spec/test-resources/files/sssd.conf": "d41d8cd98f00b204e9800998ecf8427e",
  "spec/test-resources/templates/sssd.erb": "92004106c5e125d53f1a933852e5b68a",
  "templates/sssd.conf.erb": "42a5917e3714fd86861b13456ce932c5",
  "tests/init.pp": "ebcb522aa394800a80c3a9366e5658c0"
}